<?xml version="1.0"?>
<svg xmlns="http://www.w3.org/2000/svg" viewBox="0 0 530 398" enable-background="new 0 0 530 398">
  <switch>
    <g>
      <path fill="#999" stroke="#4d4d4d" stroke-linejoin="round" stroke-linecap="round" stroke-width="4" stroke-miterlimit="10" d="m260 32.5h10v187h-10z"/>
      <g>
        <path fill="#ccc" stroke="#4d4d4d" stroke-linejoin="round" stroke-linecap="round" stroke-width="4" stroke-miterlimit="10" d="m195 271.56h140v93.33h-140z"/>
        <path fill="#ccc" stroke="#4d4d4d" stroke-linejoin="round" stroke-linecap="round" stroke-width="4" stroke-miterlimit="10" d="m265 217.11l-84.52 39.41h169.04z"/>
        <path fill="none" stroke="#4d4d4d" stroke-linejoin="round" stroke-linecap="round" stroke-width="4" stroke-miterlimit="10" d="m209 284h112"/>
        <path fill="none" stroke="#4d4d4d" stroke-linejoin="round" stroke-linecap="round" stroke-width="4" stroke-miterlimit="10" d="m209 352.44h112"/>
        <path fill="#999" stroke="#4d4d4d" stroke-linejoin="round" stroke-linecap="round" stroke-width="4" stroke-miterlimit="10" d="m175.56 364.89h178.89v15.556h-178.89z"/>
        <path fill="#999" stroke="#4d4d4d" stroke-linejoin="round" stroke-linecap="round" stroke-width="4" stroke-miterlimit="10" d="m175.56 256h178.89v15.556h-178.89z"/>
        <path fill="#999" stroke="#4d4d4d" stroke-linejoin="round" stroke-linecap="round" stroke-width="4" stroke-miterlimit="10" d="m160 380.44h210v15.556h-210z"/>
        <path fill="#999" stroke="#4d4d4d" stroke-linejoin="round" stroke-linecap="round" stroke-width="4" stroke-miterlimit="10" d="m221.44 284h15.556v68.44h-15.556z"/>
        <path fill="#999" stroke="#4d4d4d" stroke-linejoin="round" stroke-linecap="round" stroke-width="4" stroke-miterlimit="10" d="m257.22 284h15.556v68.44h-15.556z"/>
        <path fill="#999" stroke="#4d4d4d" stroke-linejoin="round" stroke-linecap="round" stroke-width="4" stroke-miterlimit="10" d="m293.78 284h15.556v68.44h-15.556z"/>
        <circle cx="265" cy="238.11" r="8.556" fill="#999" stroke="#4d4d4d" stroke-linejoin="round" stroke-linecap="round" stroke-width="4" stroke-miterlimit="10"/>
        <path fill="none" stroke="#4d4d4d" stroke-linejoin="round" stroke-linecap="round" stroke-width="4" stroke-miterlimit="10" d="m310.89 200.78v35.778"/>
        <path fill="#ed6265" stroke="#4d4d4d" stroke-linejoin="round" stroke-linecap="round" stroke-width="4" stroke-miterlimit="10" d="m310.89 204.67h35.778v21.778h-35.778z"/>
        <path fill="#909bfc" stroke="#4d4d4d" stroke-linejoin="round" stroke-linecap="round" stroke-width="4" stroke-miterlimit="10" d="m310.89 204.67h14v9.333h-14z"/>
        <path fill="none" stroke="#fff" stroke-linejoin="round" stroke-linecap="round" stroke-width="4" stroke-miterlimit="10" d="m331.11 210.89h9.333"/>
        <path fill="none" stroke="#fff" stroke-linejoin="round" stroke-linecap="round" stroke-width="4" stroke-miterlimit="10" d="m317.11 220.22h23.333"/>
      </g>
      <path fill="none" stroke="#4d4d4d" stroke-linejoin="round" stroke-linecap="round" stroke-width="4" stroke-miterlimit="10" d="m457 19h-384"/>
      <circle cx="265" cy="19" r="17" fill="#ccc" stroke="#4d4d4d" stroke-linejoin="round" stroke-linecap="round" stroke-width="4" stroke-miterlimit="10"/>
      <path fill="none" stroke="#4d4d4d" stroke-linejoin="round" stroke-linecap="round" stroke-width="4" stroke-miterlimit="10" d="m142 179h-140l70-160z"/>
      <path d="M7,179c0,16.569,29.101,36,65,36s65-19.431,65-36H7z" fill="#ccc" stroke="#4d4d4d" stroke-linejoin="round" stroke-linecap="round" stroke-width="4" stroke-miterlimit="10"/>
      <path d="m86 179l-7-23.333c2.807-2.131 4.667-5.538 4.667-9.333 0-6.443-5.223-11.667-11.667-11.667-6.443 0-11.667 5.223-11.667 11.667 0 3.782 1.877 7.202 4.667 9.333l-7 23.333h-.003c-12.36-5.402-20.997-18.316-20.997-32.667 0-19.33 15.67-37.33 35-37.33s35 18 35 37.33c0 14.322-8.681 27.25-21 32.667z" fill="#9f94c4" stroke="#4d4d4d" stroke-linejoin="round" stroke-linecap="round" stroke-width="4" stroke-miterlimit="10"/>
      <path fill="none" stroke="#4d4d4d" stroke-linejoin="round" stroke-linecap="round" stroke-width="4" stroke-miterlimit="10" d="m528 179h-140l70-160z"/>
      <path d="m393 179c0 16.569 29.1 36 65 36s65-19.431 65-36h-130z" fill="#ccc" stroke="#4d4d4d" stroke-linejoin="round" stroke-linecap="round" stroke-width="4" stroke-miterlimit="10"/>
      <circle cx="458" cy="144" r="35" fill="#9f94c4" stroke="#4d4d4d" stroke-linejoin="round" stroke-linecap="round" stroke-width="4" stroke-miterlimit="10"/>
      <g>
        <path fill="none" stroke="#4d4d4d" stroke-linejoin="round" stroke-linecap="round" stroke-width="4" stroke-miterlimit="10" d="M259.46 21.646 255 19 259.46 16.354"/>
        <path fill="none" stroke="#4d4d4d" stroke-linejoin="round" stroke-linecap="round" stroke-width="4" stroke-miterlimit="10" d="M270.54 16.354 275 19 270.54 21.646"/>
        <path fill="none" stroke="#4d4d4d" stroke-linejoin="round" stroke-linecap="round" stroke-width="4" stroke-miterlimit="10" d="m263.01 25l3.988-12"/>
      </g>
      <path d="m459.4 164c-2.747 0-5.329-.495-7.746-1.484-2.419-.988-4.516-2.371-6.291-4.148-1.777-1.776-3.187-3.883-4.232-6.319-1.043-2.436-1.565-5.082-1.565-7.94v-.109c0-2.784.513-5.394 1.539-7.83 1.024-2.436 2.434-4.561 4.23-6.373 1.794-1.814 3.928-3.232 6.4-4.258 2.473-1.025 5.175-1.539 8.104-1.539 1.979 0 3.773.192 5.385.577 1.612.384 3.086.934 4.423 1.648 1.337.714 2.545 1.566 3.625 2.555 1.082.988 2.043 2.069 2.885 3.241l-8.02 6.209c-1.099-1.392-2.307-2.491-3.627-3.297-1.318-.805-2.913-1.208-4.78-1.208-1.356 0-2.593.266-3.709.796-1.118.531-2.08 1.256-2.885 2.17-.807.916-1.438 1.997-1.895 3.242-.459 1.246-.687 2.565-.687 3.957v.11c0 1.428.228 2.775.687 4.04.457 1.264 1.088 2.354 1.895 3.27.805.915 1.766 1.64 2.885 2.17 1.116.531 2.352.796 3.709.796.989 0 1.895-.109 2.719-.329s1.575-.54 2.254-.962c.676-.421 1.318-.915 1.923-1.483.603-.568 1.2-1.2 1.786-1.896l8.02 5.714c-.914 1.246-1.914 2.4-2.994 3.462-1.08 1.062-2.307 1.978-3.681 2.747-1.374.769-2.912 1.374-4.614 1.813-1.703.44-3.618.66-5.743.66z" fill="#fff" stroke="#4d4d4d" stroke-linejoin="round" stroke-linecap="round" stroke-width="4" stroke-miterlimit="10"/>
    </g>
  </switch>
</svg>
